ColWidths_connform.ListSessions<|||>1<|||>163,50,50,50,50,50,53
ColsVisible_connform.ListSessions<|||>1<|||>0
ColPositions_connform.ListSessions<|||>1<|||>0,1,2,3,4,5,6
ColSort_connform.ListSessions<|||>1<|||>0,0
CoolBand0Index<|||>3<|||>0
CoolBand0Break<|||>3<|||>1
CoolBand0Width<|||>3<|||>1362
CoolBand1Index<|||>3<|||>1
CoolBand1Break<|||>3<|||>1
CoolBand1Width<|||>3<|||>1362
MainWinOnMonitor<|||>3<|||>0
ColWidths_MainForm.ListDatabases<|||>1<|||>150,80,50,50,50,50,50,50,50,50,120
ColsVisible_MainForm.ListDatabases<|||>1<|||>0,1,2,3,4,5,6,7,8,9,10
ColPositions_MainForm.ListDatabases<|||>1<|||>0,1,2,3,4,5,6,7,8,9,10
ColSort_MainForm.ListDatabases<|||>1<|||>0,0
ColWidths_MainForm.ListVariables<|||>1<|||>160,200,275
ColsVisible_MainForm.ListVariables<|||>1<|||>0,1,2
ColPositions_MainForm.ListVariables<|||>1<|||>0,1,2
ColSort_MainForm.ListVariables<|||>1<|||>0,0
ColWidths_MainForm.ListStatus<|||>1<|||>160,275,100,100
ColsVisible_MainForm.ListStatus<|||>1<|||>0,1,2,3
ColPositions_MainForm.ListStatus<|||>1<|||>0,1,2,3
ColSort_MainForm.ListStatus<|||>1<|||>0,0
ColWidths_MainForm.ListProcesses<|||>1<|||>70,80,80,80,80,50,50,145
ColsVisible_MainForm.ListProcesses<|||>1<|||>0,1,2,3,4,5,6,7
ColPositions_MainForm.ListProcesses<|||>1<|||>0,1,2,3,4,5,6,7
ColSort_MainForm.ListProcesses<|||>1<|||>0,1
ColWidths_MainForm.ListCommandStats<|||>1<|||>120,100,100,100,215
ColsVisible_MainForm.ListCommandStats<|||>1<|||>0,1,2,3,4
ColPositions_MainForm.ListCommandStats<|||>1<|||>0,1,2,3,4
ColSort_MainForm.ListCommandStats<|||>1<|||>1,1
ColWidths_MainForm.ListTables<|||>1<|||>120,70,70,120,120,70,100,50,70,70,70,70,70,90,120,70,70,70,50
ColsVisible_MainForm.ListTables<|||>1<|||>0,1,2,3,4,5,6,18
ColPositions_MainForm.ListTables<|||>1<|||>0,1,2,3,4,5,6,7,8,9,10,11,12,13,14,15,16,17,18
ColSort_MainForm.ListTables<|||>1<|||>0,0
LastSessions<|||>1<|||>localhost
LastActiveSession<|||>1<|||>localhost
MemoEditorWidth<|||>3<|||>782
MemoEditorHeight<|||>3<|||>222
ColWidths_frmTableEditor.listColumns<|||>1<|||>44,100,141,90,60,65,50,108,130,128,100,100
ColsVisible_frmTableEditor.listColumns<|||>1<|||>0,1,2,3,4,5,6,7,8,9,10,11
ColPositions_frmTableEditor.listColumns<|||>1<|||>0,1,2,3,4,5,6,7,8,9,10,11
ColSort_frmTableEditor.listColumns<|||>1<|||>-1,0
ColWidths_frmTableEditor.treeIndexes<|||>1<|||>296,100,80
ColsVisible_frmTableEditor.treeIndexes<|||>1<|||>0,1,2
ColPositions_frmTableEditor.treeIndexes<|||>1<|||>0,1,2
ColSort_frmTableEditor.treeIndexes<|||>1<|||>-1,0
ColWidths_frmTableEditor.listForeignKeys<|||>1<|||>94,80,100,80,80,80
ColsVisible_frmTableEditor.listForeignKeys<|||>1<|||>0,1,2,3,4,5
ColPositions_frmTableEditor.listForeignKeys<|||>1<|||>0,1,2,3,4,5
ColSort_frmTableEditor.listForeignKeys<|||>1<|||>-1,0
querymemoheight<|||>3<|||>143
MainWinMaximized<|||>3<|||>1
DateTimeEditor_CursorPos_Type4<|||>3<|||>0
Servers\localhost\SessionCreated<|||>1<|||>2017-01-26 10:15:48
Servers\localhost\Host<|||>1<|||>127.0.0.1
Servers\localhost\WindowsAuth<|||>3<|||>0
Servers\localhost\User<|||>1<|||>root
Servers\localhost\Password<|||>1<|||>4
Servers\localhost\LoginPrompt<|||>3<|||>0
Servers\localhost\Port<|||>1<|||>3306
Servers\localhost\NetType<|||>3<|||>0
Servers\localhost\Compressed<|||>3<|||>0
Servers\localhost\LocalTimeZone<|||>3<|||>0
Servers\localhost\QueryTimeout<|||>3<|||>0
Servers\localhost\KeepAlive<|||>3<|||>0
Servers\localhost\FullTableStatus<|||>3<|||>1
Servers\localhost\Databases<|||>1<|||>
Servers\localhost\Comment<|||>1<|||>
Servers\localhost\StartupScriptFilename<|||>1<|||>
Servers\localhost\SSHtunnelHost<|||>1<|||>
Servers\localhost\SSHtunnelHostPort<|||>3<|||>0
Servers\localhost\SSHtunnelUser<|||>1<|||>
Servers\localhost\SSHtunnelPassword<|||>1<|||>2
Servers\localhost\SSHtunnelTimeout<|||>3<|||>4
Servers\localhost\SSHtunnelPrivateKey<|||>1<|||>
Servers\localhost\SSHtunnelPort<|||>3<|||>3307
Servers\localhost\SSL_Active<|||>3<|||>0
Servers\localhost\SSL_Key<|||>1<|||>
Servers\localhost\SSL_Cert<|||>1<|||>
Servers\localhost\SSL_CA<|||>1<|||>
Servers\localhost\SSL_Cipher<|||>1<|||>
Servers\localhost\ServerVersionFull<|||>1<|||>5.6.21 - MySQL Community Server (GPL)
Servers\localhost\ConnectCount<|||>3<|||>4
Servers\localhost\ServerVersion<|||>3<|||>50621
Servers\localhost\LastConnect<|||>1<|||>2017-02-15 13:51:37
Servers\localhost\lastUsedDB<|||>1<|||>childmonitor
Servers\localhost\childmonitor|parkingdata\Sort<|||>1<|||>0_JsonDat|
Servers\localhost\QueryHistory\1<|||>1<|||>2017-01-26 10:16:51|childmonitor|436|    drop table IF EXISTS `ParkingData`;<{{{><}}}>    CREATE TABLE `ParkingData` (<{{{><}}}>            `idUser` BIGINT(20) NOT NULL,<{{{><}}}>            `idCar`   VARCHAR(25) NULL,<{{{><}}}>  	    `Lat` DOUBLE NOT NULL,<{{{><}}}>	    `Longc` DOUBLE NOT NULL,<{{{><}}}>            `Address`    VARCHAR(255) NULL,<{{{><}}}>            `Street`    VARCHAR(128) NULL,<{{{><}}}>            `City`    VARCHAR(128) NULL,<{{{><}}}>            `State`   VARCHAR(128) NULL,<{{{><}}}>            `Country` VARCHAR(128) NULL,<{{{><}}}>            `Period`   INT(2) NULL,<{{{><}}}>            `DateTimePark` DATETIME NULL DEFAULT CURRENT_TIMESTAMP,<{{{><}}}>            `ParkPaid` TINYINT NULL DEFAULT '0',<{{{><}}}>            `JsonDat`     MEDIUMBLOB NULL,<{{{><}}}>            INDEX `iidParkingData` (`idUser`, `idCar`,`Country`,`City`, `Street`,`Lat`,`Longc` )<{{{><}}}>    )<{{{><}}}>    COLLATE='utf8_general_ci'<{{{><}}}>    ENGINE=InnoDB;<{{{><}}}>
Servers\localhost\QueryHistory\2<|||>1<|||>2017-01-31 10:30:02|childmonitor|0|select * from `ParkingData`
Servers\localhost\QueryHistory\4<|||>1<|||>2017-01-31 13:23:53|childmonitor|0|select idCar,Lat,Longc,Period from `ParkingData` where Street='PraÃ§a Quinze de Novembro' and City='Rio de Janeiro' and Country='Rio de Janeiro'
Servers\localhost\QueryHistory\3<|||>1<|||>2017-01-31 13:24:01|childmonitor|0|select idCar,Lat,Longc,Period from `ParkingData` where 1
Servers\localhost\QueryHistory\6<|||>1<|||>2017-01-31 13:24:54|childmonitor|0|select * from `ParkingData` where Street='Praça Quinze de Novembro' and City='Rio de Janeiro' and Country='Rio de Janeiro'
Servers\localhost\QueryHistory\5<|||>1<|||>2017-01-31 14:08:53|childmonitor|0|select * from `ParkingData` where 1
Servers\localhost\QueryHistory\7<|||>1<|||>2017-02-02 15:57:51|childmonitor|0|select idCar,Lat,Longc,Period,haversine(Lat,Longc,-22.9025161,-43.1740537) as harvin from `ParkingData` where idCar='QQW-1212' order by harvin asc limit 30
Servers\localhost\QueryHistory\8<|||>1<|||>2017-02-02 16:35:56|childmonitor|0|select idCar,Lat,Longc,Period,DateTimePark,haversine(Lat,Longc,-22.9025161,-43.1740537) as harvin from `ParkingData` where idCar='QQW-1212' order by harvin asc limit 30
Servers\localhost\QueryHistory\9<|||>1<|||>2017-02-15 13:52:30|childmonitor|468|drop table IF EXISTS `ParkingDataPenalty`;<{{{><}}}>CREATE TABLE `ParkingDataPenalty`<{{{><}}}>  AS (SELECT *<{{{><}}}>      FROM `ParkingData` WHERE 1=2);
Servers\localhost\QueryHistory\10<|||>1<|||>2017-02-15 15:08:58|childmonitor|62|SELECT DATEDIFF(CURDATE(),'2007-01-01');
Servers\localhost\QueryHistory\11<|||>1<|||>2017-02-15 15:09:49|childmonitor|0|SELECT DATEDIFF(CURDATE(),'2017-02-01');	
Servers\localhost\QueryHistory\12<|||>1<|||>2017-02-15 15:10:11|childmonitor|0|SELECT DATEDIFF(CURDATE(),'2017-02-15');	
Servers\localhost\QueryHistory\13<|||>1<|||>2017-02-15 15:10:29|childmonitor|0|SELECT DATEDIFF(CURDATE(),'2017-02-15 00:00:00');	
Servers\localhost\QueryHistory\14<|||>1<|||>2017-02-15 15:10:53|childmonitor|0|SELECT DATEDIFF(CURDATE(),'2017-02-15 00:00:00');	<{{{><}}}><{{{><}}}>SELECT CURDATE();
Servers\localhost\QueryHistory\15<|||>1<|||>2017-02-15 15:11:50|childmonitor|0|SELECT DATEDIFF('2017-02-15 00:00:00','2017-02-15 00:00:00');	<{{{><}}}><{{{><}}}>
Servers\localhost\QueryHistory\16<|||>1<|||>2017-02-15 15:11:56|childmonitor|0|SELECT DATEDIFF('2017-02-15 00:00:00','2017-02-15 00:01:00');	<{{{><}}}><{{{><}}}>
Servers\localhost\QueryHistory\18<|||>1<|||>2017-02-15 15:31:24|childmonitor|0|select * from `ParkingDataPenalty` WHERE DATEDIFF(CURDATE(),DateTimePark)>2<{{{><}}}>
Servers\localhost\QueryHistory\17<|||>1<|||>2017-02-15 15:39:34|childmonitor|125|drop table IF EXISTS `ParkingDataPenaltyHistory`;<{{{><}}}>CREATE TABLE `ParkingDataPenaltyHistory`<{{{><}}}>  AS (SELECT *<{{{><}}}>      FROM `ParkingData` WHERE 1=2);<{{{><}}}>
Servers\localhost\QueryHistory\19<|||>1<|||>2017-02-15 15:40:17|childmonitor|156|drop table IF EXISTS `ParkingDataHistory`;<{{{><}}}>CREATE TABLE `ParkingDataHistory`<{{{><}}}>  AS (SELECT *<{{{><}}}>      FROM `ParkingData` WHERE 1=2);
Servers\localhost\QueryHistory\20<|||>1<|||>2017-02-15 15:41:46|childmonitor|0|select * from `ParkingDataPenalty` WHERE DATEDIFF(CURDATE(),DateTimePark)>2
Servers\localhost\QueryHistory\22<|||>1<|||>2017-02-15 15:42:25|childmonitor|31|INSERT INTO `ParkingDataPenaltyHistory` select * from `ParkingDataPenalty` WHERE DATEDIFF(CURDATE(),DateTimePark)>2
Servers\localhost\QueryHistory\21<|||>1<|||>2017-02-15 15:49:08|childmonitor|15|DELETE FROM `ParkingDataPenalty` WHERE DATEDIFF(CURDATE(),DateTimePark)>2;
